{
  "cviceni": {
    "version": {
      "global": "<%= version %>",
      "content": 3
    },
    "katalog": [
      "test",
      "public"
    ],
    "language": "cs",
    "id": 33,
    "slug": "jaky-pribeh-vypravi-tank",
    "nazev": "Jaký příběh vypráví tank?",
    "autor": [
      "Pavla Sýkorová"
    ],
    "klicovaSlova": [
      "důsledky druhé světové války",
      "Československo 48-91",
      "dějiny ve veřejném prostoru",
      "pomník",
      "historický význam",
      "tvoříme"
    ],
    "anotace": {
      "ucitel": "Cvičení pracuje se čtyřmi fotografiemi zachycujícími proměny Památníku sovětských tankistů (tanku č. 23), který na dnešním náměstí Kinských na Smíchově připomínal osvobození Prahy Rudou armádou. Žáci na základě popisu dění na fotografiích a jejich chronologického řazení reflektují posuny hodnot, které si společnost připomíná v souvislosti s koncem druhé světové války a úlohou Rudé armády. Závěry pátrání žáci popisují formou příběhu.",
      "verejna": "Na náměstí stojí tank. Proč ho přebarvují? Zelená, růžová, zelená, růžová. Není to jen tak nějaká hra, jsou to velké dějiny. Prozkoumejte čtyři fotografie tanku 23 a objevte dramatický příběh."
    },
    "trvani": 35,
    "funkce": [
      "lupa",
      "text",
      "svg",
      "znacky",
      "razeni"
    ],
    "pdf": {
      "doporucenyPostup": "jaky-pribeh-vypravi-tank.pdf"
    },
    "uvodniObrazek": "jaky-pribeh-vypravi-tank/pic-00-1280w.jpg"
  },
  "slajd": [
    {
      "zadani": {
        "hlavni": "Prohlédněte si fotografii.",
        "rozsirujici": ""
      },
      "napoveda": {
        "aktivity": [
          "lupa"
        ],
        "text": "Při kliknutí levým tlačítkem do obrazu lupa přiblíží část obrazu ve výřezu."
      },
      "prameny": [
        "jaky-pribeh-vypravi-tank/pic-00-1280w.jpg"
      ],
      "popisky": [
        "Zdroj: ČTK"
      ]
    },
    {
      "zadani": {
        "hlavni": "Vyznačte a popište na fotografii důležité prvky, které pomohou určit, co se na ní děje.",
        "rozsirujici": ""
      },
      "napoveda": {
        "aktivity": [
          "svg"
        ],
        "text": "Kliknutím na snímek levým tlačítkem myši označujete bod. Nakliknutím na bod pravým tlačítkem otevřete menu s nabídkou úkonů: změnit barvu bodu, (T) doplnit textový komentář, (X) smazat nakliknutý objekt."
      },
      "svg": {
        "soubory": [
          {
            "id": "svg-1",
            "soubor": "jaky-pribeh-vypravi-tank/pic-00-1280w.jpg",
            "funkce": [
              "text",
              "znacky"
            ]
          }
        ]
      }
    },
    {
      "zadani": {
        "hlavni": "Prohlédněte si další fotografie a přečtěte si popisky.",
        "rozsirujici": ""
      },
      "napoveda": {
        "aktivity": [
          "lupa"
        ],
        "text": "Při kliknutí levým tlačítkem do obrazu lupa přiblíží část obrazu ve&nbsp;výřezu."
      },
      "prameny": [
        "jaky-pribeh-vypravi-tank/pic-01-1280w.jpg",
        "jaky-pribeh-vypravi-tank/pic-02-1280w.jpg",
        "jaky-pribeh-vypravi-tank/pic-00-1280w.jpg",
        "jaky-pribeh-vypravi-tank/pic-03-1280w.jpg"
      ],
      "popisky": [
        "Na náměstí Sovětských tankistů v Praze na Smíchově složili 5. května pionýrský slib pionýři ze 117. osmiletky v Praze Radlicích. Zdroj: ČTK",
        "Pracovníci Metrostavu sejmuli asi 45 tun vážící smíchovský tank, stále natřený růžovou barvou, z podstavce a na podvalníku jej přepravili do Muzea letectví a kosmonautiky ve Kbelích. Zdroj: ČTK",
        "",
        "Slavnostní odhalení pomníku sovětským tankistům a padlým v bojích za osvobození Prahy - sovětský tank č. 23 na Štefánikově náměstí v Praze na Smíchově. Zdroj: ČTK"
      ],
      "zpetnaVazba": {
        "text": "Mám prohlédnuto!"
      }
    },
    {
      "zadani": {
        "hlavni": "Vyznačte a popište na každé fotografii dva důležité prvky, které vám pomohou odhalit, co se na snímcích děje.",
        "rozsirujici": ""
      },
      "napoveda": {
        "aktivity": [
          "svg"
        ],
        "text": "Kliknutím na snímek levým tlačítkem myši označujete bod. Nakliknutím na bod pravým tlačítkem otevřete menu s nabídkou úkonů: změnit barvu bodu, (T) doplnit textový komentář, (X) smazat nakliknutý objekt."
      },
      "svg": {
        "soubory": [
          {
            "id": "svg-2",
            "soubor": "jaky-pribeh-vypravi-tank/pic-01-640w.jpg",
            "funkce": [
              "text",
              "znacky"
            ]
          },
          {
            "id": "svg-3",
            "soubor": "jaky-pribeh-vypravi-tank/pic-02-640w.jpg",
            "funkce": [
              "text",
              "znacky"
            ]
          },
          {
            "id": "svg-4",
            "soubor": "jaky-pribeh-vypravi-tank/pic-00-640w.jpg",
            "funkce": [
              "text",
              "znacky"
            ]
          },
          {
            "id": "svg-5",
            "soubor": "jaky-pribeh-vypravi-tank/pic-03-640w.jpg",
            "funkce": [
              "text",
              "znacky"
            ]
          }
        ]
      },
      "popisky": [
        "Na náměstí Sovětských tankistů v Praze na Smíchově složili 5. května pionýrský slib pionýři ze 117. osmiletky v Praze Radlicích. Zdroj: ČTK",
        "Pracovníci Metrostavu sejmuli asi 45 tun vážící smíchovský tank, stále natřený růžovou barvou, z podstavce a na podvalníku jej přepravili do Muzea letectví a kosmonautiky ve Kbelích. Zdroj: ČTK",
        "",
        "Slavnostní odhalení pomníku sovětským tankistům a padlým v bojích za osvobození Prahy - sovětský tank č. 23 na Štefánikově náměstí v Praze na Smíchově. Zdroj: ČTK"
      ]
    },
    {
      "class": "half-slide-previous",
      "zadani": {
        "hlavni": "Seřaďte snímky.",
        "rozsirujici": "Odhadněte, jak šly události za sebou."
      },
      "napoveda": {
        "aktivity": [
          "razeni"
        ],
        "text": "Kliknutím na fotografie a tahem myši přesuňte fotografii na požadovanou pozici mezi ostatní položky."
      },
      "razeni": {
        "id": "razeni-1",
        "typ": "horizontalni",
        "objekty": [
          {
            "medium": "svg",
            "objekt": {
              "soubor": "jaky-pribeh-vypravi-tank/pic-01-640w.jpg",
              "duplikovat": [
                "svg-2"
              ]
            },
            "popisek": "Na náměstí Sovětských tankistů v Praze na Smíchově složili 5. května pionýrský slib pionýři ze 117. osmiletky v Praze Radlicích.",
            "spravnaOdpoved": "2"
          },
          {
            "medium": "svg",
            "objekt": {
              "soubor": "jaky-pribeh-vypravi-tank/pic-02-640w.jpg",
              "duplikovat": [
                "svg-3"
              ]
            },
            "popisek": "Pracovníci Metrostavu sejmuli asi 45 tun vážící smíchovský tank, stále natřený růžovou barvou, z podstavce a na podvalníku jej přepravili do Muzea letectví a kosmonautiky ve Kbelích.",
            "spravnaOdpoved": "4"
          },
          {
            "medium": "svg",
            "objekt": {
              "soubor": "jaky-pribeh-vypravi-tank/pic-00-640w.jpg",
              "duplikovat": [
                "svg-4"
              ]
            },
            "popisek": "",
            "spravnaOdpoved": "3"
          },
          {
            "medium": "svg",
            "objekt": {
              "soubor": "jaky-pribeh-vypravi-tank/pic-03-640w.jpg",
              "duplikovat": [
                "svg-5"
              ]
            },
            "popisek": "Slavnostní odhalení pomníku sovětským tankistům a padlým v bojích za osvobození Prahy - sovětský tank č. 23 na Štefánikově náměstí v Praze na Smíchově.",
            "spravnaOdpoved": "1"
          }
        ],
        "zpetnaVazba": [
          {
            "podminka": 2,
            "text": "Opravdu? My jsme fotografie uspořádali odlišně.",
            "barva": "color-red"
          },
          {
            "podminka": 1,
            "text": "Jednu fotografii bychom uspořádali odlišně.",
            "barva": "color-orange"
          },
          {
            "podminka": 0,
            "text": "Výtečně. Uspořádali jsme fotografie stejně.",
            "barva": "color-green"
          }
        ]
      }
    },
    {
      "class": [
        "half-slide-active"
      ],
      "zadani": {
        "hlavni": "Vyprávějte příběh tanku.",
        "rozsirujici": "Do vyprávění zahrňte vámi popsané důležité body."
      },
      "napoveda": {
        "aktivity": [
          "text"
        ],
        "text": "Do boxu pro text zapisujete odpověď na otázku, nebo jiný komentář (dle zadání)."
      },
      "uzivatelskyText": {
        "otazky": [
          {
            "id": "text-1",
            "zadani": "",
            "instrukce": "Příběh tanku",
            "minDelka": 10,
            "maxDelka": 1000,
            "vyska": 14
          }
        ]
      }
    }
  ]
}