{
  "cviceni": {
    "version": {
      "global": "<%= version %>",
      "content": 1
    },
    "katalog": ["test"],
    "language": "cs",
    "slug": "meli-ukrajinci-odstranit-lenina",
    "nazev": "Měli Ukrajinci odstranit Lenina?",
    "autor": ["Bohumil Melichar"],
    "cas": [
      1930,
      2014
    ],
    "epocha": {
      "svetova": [
        "Od velké hospodářské krize k válce"
      ]
    },
    "klicovaSlova": [
      "Totalitní systémy - komunismus",
      "vzpomínková kultura",
      "pokrok/úpadek",
      "trvání a změna",
      "vztah k minulosti"
    ],
    "anotace": {
      "ucitel": "Žáci skrze analýzu fotografií pomníku V. I. Lenina před přehradní hrází Dněprogezu odkrývají symbolický jazyk komunistické diktatury. V popředí je Leninův kult a jeho spojení s vizí technického pokroku. Symbolickou mluvu socialismu konfrontují s kritikou ze strany Ukrajinců požadující v 21. století důslednou dekomunizaci země.",
      "verejna": "Už jste někdy viděli, jak se strhává pomník? Zakladatel Sovětského svazu Lenin měl na Ukrajině desítky soch, které nedávno zmizely. Proč? Zkuste s pomocí pramenů porozumět souvislostem a argumentovat pro a proti odstranění pomníků."
    },
    "obtiznost": "vysoka",
    "trvani": 30,
    "funkce": ["lupa", "cteni", "text", "svg"],
    "pdf": {
      "doporucenyPostup": "meli-ukrajinci-odstranit-lenina.pdf"
    },
    "uvodniObrazek": "meli-ukrajinci-odstranit-lenina/pic-01-1280w.jpg",
    "id": 91
  },
  "slajd": [
    {
      "zadani": {
        "hlavni": "Prohlédněte si fotografii.",
        "rozsirujici": ""
      },
      "napoveda": {
        "aktivity": ["lupa"],
        "text": "Při kliknutí levým tlačítkem do obrazu lupa přiblíží část obrazu ve&nbsp;výřezu."
      },
      "prameny": ["meli-ukrajinci-odstranit-lenina/pic-00-1024h.jpg"],
      "popisky": [
        "Leninův pomník u Dněperské přehrady na Ukrajině v říjnu 2014. Vladimír Iljič Lenin: ruský revolucionář, vůdčí osobnost bolševické revoluce 1917 a zakladatel Sovětského svazu. Zdroj: Alamy Stock Photo"
      ]
    },
    {
      "class": "half-slide-previous",
      "zadani": {
        "hlavni": "Vyznačte na fotografii důležité prvky, které pomohou určit, co se na ní děje.",
        "rozsirujici": ""
      },
      "napoveda": {
        "aktivity": ["svg"],
        "text": "Kliknutím na snímek levým tlačítkem myši označujete bod. Nakliknutím na bod pravým tlačítkem otevřete menu s nabídkou úkonů: (T) doplnit textový komentář, (X) smazat nakliknutý objekt."
      },
      "svg": {
        "soubory": [
          {
            "id": "svg-1",
            "soubor": "meli-ukrajinci-odstranit-lenina/pic-00-1024h.jpg",
            "funkce": ["text", "znacky"],
            "barvy": ["blue"]
          }
        ]
      },
      "popisky": [
        "Leninův pomník u Dněperské přehrady na Ukrajině v říjnu 2014. Vladimír Iljič Lenin: ruský revolucionář, vůdčí osobnost bolševické revoluce 1917 a zakladatel Sovětského svazu. Zdroj: Alamy Stock Photo"
      ]
    },
    {
      "class": ["half-slide-active"],
      "zadani": {
        "hlavni": "Co se děje na fotografii?",
        "rozsirujici": ""
      },
      "napoveda": {
        "aktivity": ["text"],
        "text": "Do boxu pro text zapisujete odpověď na otázku, nebo jiný komentář (dle zadání)."
      },
      "uzivatelskyText": {
        "otazky": [
          {
            "id": "text-1",
            "zadani": "Co udělali s pomníkem Lenina?",
            "instrukce": "Myslím si, že…",
            "minDelka": 2,
            "maxDelka": 400
          }
        ]
      }
    },
    {
      "class": ["half-slide-previous"],
      "zadani": {
        "hlavni": "Prozkoumejte další prameny. Nově zjištěné informace doplňte do fotografie červeně.",
        "rozsirujici": ""
      },
      "napoveda": {
        "aktivity": ["lupa", "svg"],
        "text": "Při kliknutí levým tlačítkem do obrazu lupa přiblíží část obrazu ve výřezu."
      },
      "svg": {
        "nastaveni": {
          "layout": "velka-galerie"
        },
        "galerie": [
          {
            "soubor": "meli-ukrajinci-odstranit-lenina/pic-01-1280w.jpg",
            "popisek": "Fotografie zachycuje přehradu Dněprostroj na Ukrajině. Stavba vznikla v rámci Leninova plánu na elektrifikaci Ruska. Měla zajistit pokrok a prosperitu Ukrajiny. Zdroj: Alamy Stock Photo"
          },
          {
            "soubor": "meli-ukrajinci-odstranit-lenina/pic-02-1280w.jpg",
            "popisek": "Ukrajinský prezident Porošenko v úctě klečí před pomníkem obětí hladomoru. Kvůli rozsáhlým selháním sovětské vlády zachvátil Ukrajinu ve 20 a 30. letech hladomor, který si vyžádal miliony obětí. Zdroj: ČTK"
          },
          {
            "soubor": "meli-ukrajinci-odstranit-lenina/video-00.mp4",
            "popisek": "Protestující na západě Ukrajiny v únoru 2014 pod vlivem protiruských nálad strhávali Leninovy pomníky, které vnímali jako připomínku ruské nadvlády v bývalém Sovětském svazu. Zdroj: Wall Street Journal"
          },
          {
            "soubor": "meli-ukrajinci-odstranit-lenina/pic-03-1280w.jpg",
            "popisek": "Tomáš Pavlíček: Válka o Lenina. Zdroj: iDNES.cz"
          }
        ],
        "soubory": [
          {
            "id": "svg-2",
            "soubor": "meli-ukrajinci-odstranit-lenina/pic-00-1024h.jpg",
            "funkce": ["text", "znacky"],
            "duplikovat": ["svg-1"],
            "barvy": ["red"]
          }
        ]
      },
      "popisky": [
        "Pomník V. I. Lenina v ukrajinském národním kroji. Na podzim roku 2014 jej nechal takto přetvořit jeden z aktivistů, aby zabránil jeho zničení ze strany ukrajinských nacionalistů. Zdroj: Alamy Stock Photo"
      ]
    },
    {
      "class": ["half-slide-active"],
      "zadani": {
        "hlavni": "Formulujte argumenty pro a proti.",
        "rozsirujici": ""
      },
      "napoveda": {
        "aktivity": ["text"],
        "text": "Do boxu pro text zapisujete odpověď na otázku, nebo jiný komentář (dle zadání)."
      },
      "uzivatelskyText": {
        "otazky": [
          {
            "id": "text-2",
            "zadani": "Měli Ukrajinci pomník odstranit?",
            "instrukce": "Myslím si, že…",
            "minDelka": 10,
            "optimum": 150,
            "maxDelka": 999
          },
          {
            "id": "text-3",
            "zadani": "Měli Ukrajinci pomník zachovat?",
            "instrukce": "Myslím si, že…",
            "minDelka": 10,
            "optimum": 150,
            "maxDelka": 999
          }
        ]
      }
    }
  ]
}
